[
  {
    "outputFileName": "Content/bootstrap-theme.min.css",
    "inputFiles": [
      "Content/bootstrap-theme.css"
    ]
  },
  {
    "outputFileName": "Content/bootstrap.min.css",
    "inputFiles": [
      "Content/bootstrap.css"
    ]
  },
  {
    "outputFileName": "Scripts/select.min.js",
    "inputFiles": [
      "Scripts/select.js"
    ]
  },
  {
    "outputFileName": "Content/select.min.css",
    "inputFiles": [
      "Content/select.css"
    ]
  }
]
